Journal (reproducible report)
…
## [1] 1
## [1] 2
## [1] 3
## [1] 4
## [1] 5
## [1] 6
## [1] 7
## [1] 8
## [1] 9

print(rose_bike_data_tbl, n=20)

## # A tibble: 13,622 x 4
##    Name       url                          Description                 Price    
##    <chr>      <glue>                       <chr>                       <chr>    
##  1 "GROUND C~ https://www.rosebikes.com/b~ "The versatile all-rounder~ "from €1~
##  2 "GROUND C~ https://www.rosebikes.com/b~ "The versatile all-rounder~ "from €1~
##  3 "GROUND C~ https://www.rosebikes.com/b~ "The versatile all-rounder~ "from €1~
##  4 "GROUND C~ https://www.rosebikes.com/b~ "The versatile all-rounder~ "from €1~
##  5 "GROUND C~ https://www.rosebikes.com/b~ "The versatile all-rounder~ "from €1~
##  6 "GROUND C~ https://www.rosebikes.com/b~ "The versatile all-rounder~ "from €1~
##  7 "GROUND C~ https://www.rosebikes.com/b~ "The versatile all-rounder~ "from €1~
##  8 "GROUND C~ https://www.rosebikes.com/b~ "The versatile all-rounder~ "from €1~
##  9 "GROUND C~ https://www.rosebikes.com/b~ "The versatile all-rounder~ "from €1~
## 10 "ROOT MIL~ https://www.rosebikes.com/b~ "The versatile all-rounder~ "from €1~
## 11 "ROOT MIL~ https://www.rosebikes.com/b~ "The versatile all-rounder~ "from €1~
## 12 "ROOT MIL~ https://www.rosebikes.com/b~ "The versatile all-rounder~ "from €1~
## 13 "ROOT MIL~ https://www.rosebikes.com/b~ "The versatile all-rounder~ "from €1~
## 14 "ROOT MIL~ https://www.rosebikes.com/b~ "The versatile all-rounder~ "from €1~
## 15 "ROOT MIL~ https://www.rosebikes.com/b~ "The versatile all-rounder~ "from €1~
## 16 "ROOT MIL~ https://www.rosebikes.com/b~ "The versatile all-rounder~ "from €1~
## 17 "ROOT MIL~ https://www.rosebikes.com/b~ "The versatile all-rounder~ "from €1~
## 18 "ROOT MIL~ https://www.rosebikes.com/b~ "The versatile all-rounder~ "from €1~
## 19 "PIKES PE~ https://www.rosebikes.com/b~ "The versatile all-rounder~ "from €1~
## 20 "PIKES PE~ https://www.rosebikes.com/b~ "The versatile all-rounder~ "from €1~
## # ... with 13,602 more rows
…
